{
  "LuaSnip": { "branch": "master", "commit": "825a61bad1d60d917a7962d73cf3c683f4e0407e" },
  "cmp-buffer": { "branch": "main", "commit": "3022dbc9166796b644a841a02de8dd1cc1d311fa" },
  "cmp-nvim-lsp": { "branch": "main", "commit": "5af77f54de1b16c34b23cba810150689a3a90312" },
  "cmp-path": { "branch": "main", "commit": "91ff86cd9c29299a64f968ebb45846c485725f23" },
  "codeium.nvim": { "branch": "main", "commit": "a070f57c0f54bd940436b94c8b679bcad5a48811" },
  "flash.nvim": { "branch": "main", "commit": "48817af25f51c0590653bbc290866e4890fe1cbe" },
  "indent-blankline.nvim": { "branch": "master", "commit": "3d08501caef2329aba5121b753e903904088f7e6" },
  "lazy.nvim": { "branch": "main", "commit": "31ddbea7c10b6920c9077b66c97951ca8682d5c8" },
  "lazygit.nvim": { "branch": "main", "commit": "0ada6c6e7e138df92f5009b6952f4ac41248305a" },
  "lsp-zero.nvim": { "branch": "v2.x", "commit": "9a686513eaaa13d737d0fec8956a18268ead8b29" },
  "lualine.nvim": { "branch": "master", "commit": "b5e8bb642138f787a2c1c5aedc2a78cb2cebbd67" },
  "mason-lspconfig.nvim": { "branch": "main", "commit": "9dfcf2036c223920826140f0151d929a43f9eceb" },
  "mason.nvim": { "branch": "main", "commit": "751b1fcbf3d3b783fcf8d48865264a9bcd8f9b10" },
  "mini.comment": { "branch": "main", "commit": "ea3021eb959080a4ed4793733f12a194dfe06edc" },
  "mini.surround": { "branch": "main", "commit": "49e0364b8c9a3258b485c5ece40bb0f3a5e94b1c" },
  "noice.nvim": { "branch": "main", "commit": "0cbe3f88d038320bdbda3c4c5c95f43a13c3aa12" },
  "nui.nvim": { "branch": "main", "commit": "cbd2668414331c10039278f558630ed19b93e69b" },
  "nvim-cmp": { "branch": "main", "commit": "ce16de5665c766f39c271705b17fff06f7bcb84f" },
  "nvim-lspconfig": { "branch": "master", "commit": "f4619ab31fc4676001ea05ae8200846e6e7700c7" },
  "nvim-notify": { "branch": "master", "commit": "5371f4bfc1f6d3adf4fe9d62cd3a9d44356bfd15" },
  "nvim-treesitter": { "branch": "master", "commit": "54cf9180a36299265e217858e6e531245074c3f4" },
  "nvim-ts-context-commentstring": { "branch": "main", "commit": "734ebad31c81c6198dfe102aa23280937c937c42" },
  "nvim-web-devicons": { "branch": "master", "commit": "3ee60deaa539360518eaab93a6c701fe9f4d82ef" },
  "plenary.nvim": { "branch": "master", "commit": "8aad4396840be7fc42896e3011751b7609ca4119" },
  "telescope.nvim": { "branch": "master", "commit": "4626aaa2bcfdacf55fd6d44b430e2df81b2403ff" },
  "tokyonight.nvim": { "branch": "main", "commit": "9bf9ec53d5e87b025e2404069b71e7ebdc3a13e5" }
}